**DIRAC
.TITLE
 UF6-
.WAVE FUNCTION
.ANALYZE
**HAMILTONIAN
.ECP
**ANALYZE
.MULPOP
*MULPOP
.VECPOP
1..oo
1..oo
.LABEL
SHELL
**INTEGRALS
*READIN
.UNCONTRACT
**WAVE FUNCTION
.SCF
*SCF
.CLOSED SHELL
 44 42
.OPEN SHELL
 1
 1/0,14
.NODIIS
.DAMPFC
dampfactor
.MAXITR
150
.OPENFAC  !  active-active shells interaction 
  1.0D0
.EVCCNV
1.0D-9 1.0D-7
.LSHIFT ! enable convergence
+1.0
.OVLSEL
.NODYNSEL
*END OF
