**DIRAC
.TITLE
 UF6-
.WAVE FUNCTION
.ANALYZE
**HAMILTONIAN
.ECP
**GENERAL
.ACMOUT
**ANALYZE
.MULPOP
*MULPOP
.VECPOP
1..40
1..40
**INTEGRALS
*READIN
.UNCONTRACT
**WAVE FUNCTION
.SCF
*SCF
.CLOSED SHELL
 44 42
.MAXITR
75
*END OF
