Thallium atom
 1 15 1
1S
2S
2P
3S
3P
3D
4S
4P
4D
4F
5S
5P
5D
6S
6P 1
ANG 1 7
-1
MCP 1 2
MCDF 24
2 0 3 0 14
81 204.0
NUC 3
GAUSS 4
1S  24
2P- 20
2P  20 2P- 1 20
3D- 13
3D  13 3D- 1 13
4F-  8
4F   8 4F- 1  8
5.8033828E+07
1.4702562E+07
4.6355575E+06
1.5852740E+06
5.7924626E+05
2.2187944E+05
8.8730780E+04
3.6848078E+04
1.5843298E+04
7.0310514E+03
3.2121888E+03
1.5070783E+03
7.2301062E+02
3.3980515E+02
1.7093901E+02
8.8017323E+01
4.3016225E+01
2.2609863E+01
1.0266569E+01
5.2648225E+00
1.8988944E+00
8.8461372E-01
2.0106574E-01
7.3237091E-02
1.3728265E+07
2.3572128E+06
5.2356678E+05
1.3629076E+05
4.0148089E+04
1.3182021E+04
4.7879862E+03
1.9028441E+03
8.1502288E+02
3.6967602E+02
1.7504377E+02
8.4456267E+01
4.2043229E+01
2.1172075E+01
1.0107599E+01
4.9031493E+00
1.9632888E+00
8.0549699E-01
2.0049629E-01
5.5927884E-02
7.8021591E+03
2.0396979E+03
7.3049097E+02
3.0516736E+02
1.3964975E+02
6.7292643E+01
3.3520599E+01
1.6568385E+01
8.0815299E+00
3.8806549E+00
1.6956350E+00
6.9524060E-01
2.5357650E-01
4.8999559E+02
1.6633197E+02
6.9980085E+01
3.2175090E+01
1.5417577E+01
7.3699578E+00
3.4086613E+00
1.4138469E+00
ORBOUT 1 - 15
AL
END
