**DIRAC
.TITLE
  Pb atom
.WAVE FUNCTION
**GENERAL
**INTEGRALS
*READIN
.UNCONTRACTED
**HAMILTONIAN
.DOSSSS
**WAVE FUNCTION
.SCF
.RESOLVE
*SCF
.CLOSED SHELL
42 38
.OPEN SHELL
1
2/0,6
.EVCCNV
1.0d-05
**MOLECULE
*BASIS
.DEFAULT
 dyall.v2z
**END OF

&GOSCIP IPRNT=5 &END
