**DIRAC
.WAVE FUNCTION
.ANALYZE
**WAVE FUNCTION
.SCF
*SCF
.CLOSED SHELL
98
.OPEN SHELL
1
7/14
.OPENFAC
1.0
.OWNBAS
.PROJEC
1
AFCMXX
1
45..51
.FROZEN
50..56
**ANALYZE
.MULPOP
*MULPOP
.LABEL
SHELL
**MOLECULE                                                                                          
*BASIS                                                                                              
.DEFAULT                                                                                            
dyall.cv3z                                                                                          
**END OF
