**DIRAC                                                                                             
.ANALYZE                                                                                            
.WAVE FUNCTION                                                                                      
**INTEGRALS
*READIN
.UNCONT
**WAVE FUNCTION                                                                                     
.SCF                                                                                                
*SCF
.CLOSED SHELL                                                                                                
86
.OPEN SHELL
1
3/14
**ANALYZE
.MULPOP
*MULPOP
.VECPOP
1..oo
**END OF
