**DIRAC
.WAVE F
**HAMILTONIAN
.DFT
 LDA
.FDE
*FDE
.EXONLY
FILEEX
.GRIDOU
GRIDOUT
.WRFRMT
TXT
**GRID
.IMPORT
numerical_grid
**INTEGRALS
.NUCMOD
1
*READIN
.UNCONTRACT
**WAVE FUNCTIONS
.SCF
*SCF
.EVCCNV
1.0E-08  1.0E-06
**ANALYZE
*END OF
